Higher Education Market Segmentation
…
When calculating the proportion of schools that have falling application numbers in each region, the breakdown is as follows:

190/534 South segment = 36% 73/215 West = 34% 165/432 North Central = 38% 220/494 Northeast = 44%

ipeds%>%
  filter(appschange<0)%>%
  filter(region=="Northeast")

## # A tibble: 220 x 24
##        id name  state type  UG2018 UG2017 apps2018 apps2017 admitrate2018
##     <dbl> <chr> <chr> <chr>  <dbl>  <dbl>    <dbl>    <dbl>         <dbl>
##  1 210571 Albr Penn Priv   2111   2433     6755     8332            62
##  2 188678 Amer New  Priv    346    327      338      379            84
##  3 188942 Asso New  Priv    145    152       67       79            97
##  4 164562 Assu Mass Priv   2167   2318     4178     4576            81
##  5 164580 Babs Mass Priv   2669   2354     6383     7122            24
##  6 167792 Bard Mass Priv    432    402      281      348            81
##  7 164720 Beck Mass Priv   2274   2652     3916     4972            66
##  8 444413 Beis New  Priv    127    115       55       70            76
##  9 190956 Bela New  Priv    144    130        2        5             0
## 10 485999 Bet  New  Priv    139    119       33       35            91
## #  with 210 more rows, and 15 more variables: admitrate2017 <dbl>,
## #   yield2018 <dbl>, yield2017 <dbl>, gradrate2018 <dbl>, gradrate2017 <dbl>,
## #   instateprice2019 <dbl>, instateprice2018 <dbl>, outstateprice2019 <dbl>,
## #   outstateprice2018 <dbl>, region <fct>, UGchange <dbl>, appschange <dbl>,
## #   admitratechange <dbl>, yieldchange <dbl>, gradratechange <dbl>

ipeds%>%
  filter(appschange!="NA")%>%
  filter(region=="Northeast")

## # A tibble: 494 x 24
##        id name  state type  UG2018 UG2017 apps2018 apps2017 admitrate2018
##     <dbl> <chr> <chr> <chr>  <dbl>  <dbl>    <dbl>    <dbl>         <dbl>
##  1 188429 Adel New  Priv   5819   5768    13006    11851            74
##  2 188526 Alba New  Priv    916    911     1985     1366            72
##  3 128498 Albe Conn Priv   1519   1620     1388      933            58
##  4 210571 Albr Penn Priv   2111   2433     6755     8332            62
##  5 188641 Alfr New  Priv   1993   2017     4296     3566            63
##  6 210669 Alle Penn Priv   1859   1957     5479     5114            64
##  7 210775 Alve Penn Priv   2730   2835     2628     2179            68
##  8 188678 Amer New  Priv    346    327      338      379            84
##  9 164447 Amer Mass Priv   1425   1473     2411     1988            68
## 10 188854 Amer New  Priv   1722   1853    10653     9153            24
## #  with 484 more rows, and 15 more variables: admitrate2017 <dbl>,
## #   yield2018 <dbl>, yield2017 <dbl>, gradrate2018 <dbl>, gradrate2017 <dbl>,
## #   instateprice2019 <dbl>, instateprice2018 <dbl>, outstateprice2019 <dbl>,
## #   outstateprice2018 <dbl>, region <fct>, UGchange <dbl>, appschange <dbl>,
## #   admitratechange <dbl>, yieldchange <dbl>, gradratechange <dbl>
…
When calculating the proportion of schools that have falling application numbers in each region, the breakdown is as follows:

249/987 South segment = 25% 121/526 West = 23% 135/733 North Central = 18% 75/640 Northeast = 11.7%

ipeds%>%
  filter(gradratechange<0)%>%
  filter(region=="Northeast")%>%
  filter(gradrate2018<50)

## # A tibble: 75 x 24
##        id name  state type  UG2018 UG2017 apps2018 apps2017 admitrate2018
##     <dbl> <chr> <chr> <chr>  <dbl>  <dbl>    <dbl>    <dbl>         <dbl>
##  1 188438 Adir New  Publ   4861   4928       NA       NA            NA
##  2 245777 Bais New  Priv     57     71        5        0            80
##  3 165884 Benj Mass Priv    910    934       NA       NA            NA
##  4 486196 Beth New  Priv    199    199      120      120            54
##  5 165033 Bris Mass Publ  10513  11069       NA       NA            NA
##  6 165194 Cape Mass Publ   4756   4934       NA       NA            NA
##  7 211468 Ceda Penn Priv   1665   1679     1343     1208            57
##  8 211608 Chey Penn Publ    765    793       NA       NA            NA
##  9 190053 Clin New  Publ   1790   1926       NA       NA            NA
## 10 190248 Conc New  Priv   1237    971     1323     1087            81
## #  with 65 more rows, and 15 more variables: admitrate2017 <dbl>,
## #   yield2018 <dbl>, yield2017 <dbl>, gradrate2018 <dbl>, gradrate2017 <dbl>,
## #   instateprice2019 <dbl>, instateprice2018 <dbl>, outstateprice2019 <dbl>,
## #   outstateprice2018 <dbl>, region <fct>, UGchange <dbl>, appschange <dbl>,
## #   admitratechange <dbl>, yieldchange <dbl>, gradratechange <dbl>

ipeds%>%
  filter(gradratechange!="NA")%>%
  filter(region=="Northeast")

## # A tibble: 640 x 24
##        id name  state type  UG2018 UG2017 apps2018 apps2017 admitrate2018
##     <dbl> <chr> <chr> <chr>  <dbl>  <dbl>    <dbl>    <dbl>         <dbl>
##  1 188429 Adel New  Priv   5819   5768    13006    11851            74
##  2 188438 Adir New  Publ   4861   4928       NA       NA            NA
##  3 188526 Alba New  Priv    916    911     1985     1366            72
##  4 128498 Albe Conn Priv   1519   1620     1388      933            58
##  5 210571 Albr Penn Priv   2111   2433     6755     8332            62
##  6 188641 Alfr New  Priv   1993   2017     4296     3566            63
##  7 210669 Alle Penn Priv   1859   1957     5479     5114            64
##  8 210775 Alve Penn Priv   2730   2835     2628     2179            68
##  9 188687 Amer New  Priv    645    693       NA       NA            NA
## 10 188678 Amer New  Priv    346    327      338      379            84
## #  with 630 more rows, and 15 more variables: admitrate2017 <dbl>,
## #   yield2018 <dbl>, yield2017 <dbl>, gradrate2018 <dbl>, gradrate2017 <dbl>,
## #   instateprice2019 <dbl>, instateprice2018 <dbl>, outstateprice2019 <dbl>,
## #   outstateprice2018 <dbl>, region <fct>, UGchange <dbl>, appschange <dbl>,
## #   admitratechange <dbl>, yieldchange <dbl>, gradratechange <dbl>
